^D:\PROJECTS\PRINTERTEST\TXPRINTERTEST\DEBUG\DENDLG.OBJ|D:\PROJECTS\PRINTERTEST\TXPRINTERTEST\DEBUG\SENDHEXDATA.OBJ|D:\PROJECTS\PRINTERTEST\TXPRINTERTEST\DEBUG\STDAFX.OBJ|D:\PROJECTS\PRINTERTEST\TXPRINTERTEST\DEBUG\TXPRINTERTEST.OBJ|D:\PROJECTS\PRINTERTEST\TXPRINTERTEST\DEBUG\TXPRINTERTEST.RES|D:\PROJECTS\PRINTERTEST\TXPRINTERTEST\DEBUG\TXPRINTERTESTDLG.OBJ
D:\PROJECTS\PRINTERTEST\DEBUG\打印测试程序.ILK
D:\PROJECTS\PRINTERTEST\DEBUG\打印测试程序.EXE
D:\PROJECTS\PRINTERTEST\DEBUG\打印测试程序.PDB
