^F:\360DATA\重要数据\我的文档\VISUAL STUDIO 2012\PROJECTS\TXPRINTERTEST\TXPRINTERTEST\TXPRINTERTEST.RC
/D _DEBUG /D _UNICODE /D UNICODE /l"0x0804" /IDebug\ /nologo /fo"DEBUG\TXPRINTERTEST.RES" TXPRINTERTEST.RC /D _DEBUG /D _UNICODE /D UNICODE /l"0x0804" /IDebug\ /nologo /fo"DEBUG\TXPRINTERTEST.RES" F:\360DATA\重要数据\我的文档\VISUAL STUDIO 2012\PROJECTS\TXPRINTERTEST\TXPRINTERTEST\TXPRINTERTEST.RC
^F:\360DATA\重要数据\我的文档\VISUAL STUDIO 2012\PROJECTS\TXPRINTERTESTCOLTD\TXPRINTERTEST\TXPRINTERTEST.RC
/D _DEBUG /D _UNICODE /D UNICODE /l"0x0804" /IDebug\ /nologo /fo"DEBUG\TXPRINTERTEST.RES" TXPRINTERTEST.RC /D _DEBUG /D _UNICODE /D UNICODE /l"0x0804" /IDebug\ /nologo /fo"DEBUG\TXPRINTERTEST.RES" F:\360DATA\重要数据\我的文档\VISUAL STUDIO 2012\PROJECTS\TXPRINTERTESTCOLTD\TXPRINTERTEST\TXPRINTERTEST.RC
^F:\360DATA\重要数据\我的文档\VISUAL STUDIO 2012\PROJECTS\PRINTERTEST\TXPRINTERTEST\TXPRINTERTEST.RC
/D _DEBUG /D _UNICODE /D UNICODE /l"0x0804" /IDebug\ /nologo /fo"DEBUG\TXPRINTERTEST.RES" TXPRINTERTEST.RC /D _DEBUG /D _UNICODE /D UNICODE /l"0x0804" /IDebug\ /nologo /fo"DEBUG\TXPRINTERTEST.RES" F:\360DATA\重要数据\我的文档\VISUAL STUDIO 2012\PROJECTS\PRINTERTEST\TXPRINTERTEST\TXPRINTERTEST.RC
